<?xml version="1.0" encoding="utf-8"?>
<!-- Generator: Adobe Illustrator 16.0.0, SVG Export Plug-In . SVG Version: 6.00 Build 0)  -->
<!DOCTYPE svg PUBLIC "-//W3C//DTD SVG 1.1//EN" "http://www.w3.org/Graphics/SVG/1.1/DTD/svg11.dtd">
<svg version="1.1" id="Capa_1" xmlns="http://www.w3.org/2000/svg" xmlns:xlink="http://www.w3.org/1999/xlink" x="0px" y="0px"
	 width="170.256px" height="103.615px" viewBox="0 0 170.256 103.615" enable-background="new 0 0 170.256 103.615"
	 xml:space="preserve">
<g>
	<g>
		<g>
			<path fill="#f3e500" d="M169.937,69.063c0,0.212,0.037,0.459,0.107,0.738c0.139,0.564,0.212,1.094,0.212,1.584
				c0,1.268-0.282,2.413-0.845,3.432c-0.566,1.021-1.339,1.885-2.323,2.586c-1.974,1.408-4.366,2.113-7.181,2.113
				c-2.322,0-4.611-0.527-6.863-1.584c-2.254-1.056-4.295-2.641-6.123-4.752c-1.832-2.112-3.292-4.734-4.384-7.865
				c-1.093-3.131-1.636-6.811-1.636-11.033l0.105-30.516c0-4.223,1.125-7.248,3.379-9.08c2.252-1.83,5.523-2.744,9.819-2.744
				c-0.071,0.491-0.144,1.16-0.212,2.004c-0.07,0.775-0.122,1.813-0.158,3.115c-0.037,1.303-0.053,3.01-0.053,5.121l0.105,6.652
				h14.148c0,3.168-0.879,5.701-2.639,7.603c-1.76,1.899-4.26,2.851-7.498,2.851h-4.012l-0.105,14.994
				c0,2.955,0.266,5.436,0.793,7.442c0.526,2.005,1.249,3.644,2.164,4.909c1.9,2.393,4.364,3.591,7.389,3.591
				c1.27,0,2.535-0.176,3.803-0.528C168.634,69.483,169.304,69.274,169.937,69.063z"/>
		</g>
	</g>
	<path fill="#f3e500" d="M64.459,48.662c-0.402,0.584-0.675,1.17-0.823,1.754c-0.074,0.295-0.11,0.568-0.11,0.824
		c0.036,0.256,0.091,0.531,0.165,0.822c0.073,0.257,0.164,0.531,0.273,0.823c0.11,0.294,0.274,0.585,0.494,0.879
		c2.122,2.926,4.371,5.997,6.748,9.216c2.377,3.219,4.763,6.446,7.16,9.684c2.395,3.237,4.754,6.418,7.077,9.545
		c2.322,3.127,4.507,6.08,6.556,8.859H77.352c-2.743,0-5.122-0.547-7.132-1.646c-2.012-1.098-3.712-2.577-5.102-4.442L52.336,67.754
		c-0.295-0.402-0.532-0.824-0.713-1.263c-0.184-0.438-0.349-0.823-0.495-1.151c-0.146-0.402-0.275-0.769-0.383-1.098
		c-0.11,0.366-0.238,0.75-0.384,1.152c-0.146,0.328-0.311,0.704-0.494,1.125c-0.184,0.421-0.404,0.832-0.659,1.234L27.156,97.416
		c-1.462,1.975-3.209,3.501-5.239,4.58c-2.03,1.079-4.398,1.619-7.105,1.619H0l36.975-49.578c0.475-0.621,0.768-1.141,0.877-1.563
		c0.11-0.42,0.164-0.74,0.164-0.96V51.24c0-0.511-0.108-1.006-0.329-1.481c-0.219-0.476-0.475-0.913-0.768-1.316L10.313,12.455
		h14.812c2.634,0,5.001,0.52,7.105,1.563c2.102,1.043,3.793,2.55,5.074,4.525l11.959,16.349c0.256,0.403,0.477,0.796,0.658,1.179
		c0.184,0.385,0.348,0.742,0.494,1.071c0.146,0.402,0.294,0.768,0.439,1.097c0.074-0.291,0.183-0.64,0.33-1.042
		c0.11-0.292,0.247-0.649,0.413-1.069c0.164-0.421,0.392-0.832,0.684-1.235L73.547,6.197C76.253,2.065,80.368,0,85.89,0h14.703
		L64.459,48.662z"/>
	<g>
		<path fill="#f3e500" d="M107.166,72.721l-0.127-0.013c-4.138-0.411-8.036-1.829-11.401-4.058
			c-3.387-2.242-6.232-5.307-8.237-8.989l-0.05-0.095c-0.893-1.654-1.468-3.422-1.705-5.252c-1.179-9.053,5.935-17.512,9.756-22.057
			c0.605-0.719,1.619-1.922,1.789-2.234c0.283-0.535,0.873-1.651-0.541-3.631l0.378-0.268c-5.231,1.959-9.92,5.52-13.235,10.524
			c-8.355,12.62-4.886,29.687,7.734,38.044c12.619,8.355,29.688,4.886,38.043-7.732c3.296-4.979,4.746-10.646,4.525-16.199
			l-0.096,0.428c-2.362-0.531-3.154,0.447-3.538,0.918c-0.219,0.277-0.928,1.682-1.351,2.52
			c-2.685,5.304-7.678,15.171-16.451,17.618C110.881,72.738,109.032,72.898,107.166,72.721z"/>
		<path fill="#f3e500" d="M121.838,28.916c-6.932-4.591-15.202-5.604-22.638-3.504c1.227,2.006,1.35,3.975,0.352,5.861
			c-0.275,0.519-0.979,1.365-2.105,2.706c-3.558,4.229-10.178,12.104-9.152,19.989c0.195,1.505,0.67,2.963,1.408,4.33l0.029,0.055
			c3.59,6.598,10.152,10.957,17.574,11.697l0.104,0.01c1.551,0.147,3.072,0.016,4.531-0.389
			c7.641-2.131,12.286-11.316,14.783-16.248c0.791-1.564,1.293-2.545,1.662-2.998c1.344-1.659,3.201-2.316,5.523-1.969
			C132.956,40.766,128.79,33.52,121.838,28.916z"/>
	</g>
</g>
</svg>
